<svg width="47" height="34" viewBox="0 0 47 34" fill="none" xmlns="http://www.w3.org/2000/svg">
<g id="hamburger">
<path id="Combined Shape" fill-rule="evenodd" clip-rule="evenodd" d="M44.1618 12.2678C45.8301 12.9323 47 14.4552 47 16.2242C47 17.2654 46.5949 18.2213 45.9214 18.9671C46.5949 19.713 47 20.6693 47 21.7105C47 23.3246 46.0255 24.734 44.5873 25.4728V28.2499C44.5873 31.2906 42.1144 33.7647 39.0747 33.7647H7.92528C4.88563 33.7647 2.41267 31.2908 2.41267 28.2499V25.4728C0.974498 24.734 0 23.3246 0 21.7105C0 20.6693 0.405118 19.713 1.07863 18.9673C0.405118 18.2213 0 17.2654 0 16.2242C0 14.4552 1.17009 12.932 2.83804 12.2678C2.50366 11.7452 2.49844 11.0519 2.87982 10.515C7.55671 3.93103 15.2653 0 23.5 0C31.7342 0 39.4425 3.93056 44.1199 10.5147C44.5016 11.0516 44.496 11.7455 44.1618 12.2678ZM42.2905 22.8848C43.1267 22.8848 43.8603 22.3359 43.8603 21.7105C43.8603 21.0847 43.1267 20.536 42.2905 20.5358H25.5329L23.1822 22.8848H42.2905ZM15.8162 25.8085L10.5402 20.5358L21.0924 20.5362L15.8162 25.8085ZM3.13966 21.7105C3.13966 22.3359 3.87331 22.8848 4.70949 22.8848H8.4505L6.09987 20.5358H4.70949C3.87331 20.5358 3.13966 21.0847 3.13966 21.7105ZM4.70949 17.3985C3.87331 17.3985 3.13966 16.8499 3.13966 16.2242C3.13966 15.5984 3.87331 15.0495 4.70949 15.0495H42.2905C43.1267 15.0495 43.8603 15.5984 43.8603 16.2242C43.8603 16.8499 43.1267 17.3985 42.2905 17.3985H4.70949ZM41.2524 11.912C37.137 6.40845 30.5416 3.13749 23.5002 3.13749C16.4582 3.13749 9.86272 6.40876 5.74745 11.912H41.2524ZM7.92528 30.6272C6.61687 30.6272 5.55233 29.561 5.55233 28.2499V26.0223H11.5902L14.7063 29.1363C15.0129 29.4427 15.4146 29.5958 15.8164 29.5958C16.218 29.5958 16.6198 29.4426 16.9265 29.1363L20.0427 26.0223H41.4478V28.2499C41.4477 29.561 40.383 30.6272 39.0747 30.6272H7.92528ZM24.3332 9.44504C24.1134 9.6647 23.8103 9.7901 23.4995 9.7901C23.1901 9.7901 22.8873 9.6647 22.6674 9.44504C22.4476 9.22507 22.3222 8.92239 22.3222 8.61354C22.3222 8.3028 22.4476 8.00012 22.6674 7.78047C22.8873 7.56239 23.1901 7.43699 23.4995 7.43699C23.8103 7.43699 24.1134 7.56239 24.3332 7.78047C24.5514 8.00012 24.6771 8.3028 24.6771 8.61354C24.6771 8.92239 24.5514 9.22507 24.3332 9.44504ZM20.0413 6.20729C20.3521 6.20729 20.6552 6.08157 20.8732 5.86192C21.0932 5.64226 21.2187 5.33958 21.2187 5.03042C21.2187 4.71967 21.0932 4.417 20.8732 4.19734C20.6552 3.97926 20.3521 3.85386 20.0413 3.85386C19.7303 3.85386 19.4275 3.97926 19.2092 4.19734C18.9894 4.417 18.8638 4.71967 18.8638 5.03042C18.8638 5.33958 18.9894 5.64226 19.2092 5.86192C19.4275 6.08157 19.7303 6.20729 20.0413 6.20729ZM27.7916 5.86192C27.5718 6.08157 27.2687 6.20729 26.9579 6.20729C26.6485 6.20729 26.3455 6.08157 26.1258 5.86192C25.906 5.64226 25.7804 5.33958 25.7804 5.03042C25.7804 4.71967 25.906 4.417 26.1258 4.19734C26.3456 3.97926 26.6487 3.85386 26.9579 3.85386C27.2687 3.85386 27.5718 3.97926 27.7916 4.19734C28.0098 4.417 28.137 4.71967 28.137 5.03042C28.137 5.33958 28.0098 5.64226 27.7916 5.86192ZM13.123 9.7901C13.4339 9.7901 13.7368 9.6647 13.9566 9.44504C14.1749 9.22507 14.3003 8.92239 14.3003 8.61354C14.3003 8.3028 14.1749 8.00012 13.9566 7.78047C13.7368 7.56239 13.4339 7.43699 13.123 7.43699C12.8138 7.43699 12.5109 7.56239 12.2909 7.78047C12.0712 8.00012 11.9454 8.3028 11.9454 8.61354C11.9454 8.92239 12.0712 9.22507 12.2909 9.44504C12.5109 9.6647 12.8138 9.7901 13.123 9.7901ZM34.7097 9.44504C34.4898 9.6647 34.1869 9.7901 33.8759 9.7901C33.5667 9.7901 33.2638 9.6647 33.044 9.44504C32.824 9.22697 32.6985 8.92239 32.6985 8.61354C32.6985 8.3028 32.824 8.00012 33.044 7.78047C33.2638 7.56239 33.5665 7.43699 33.8759 7.43699C34.1853 7.43699 34.4898 7.56239 34.7097 7.78047C34.9278 8.00012 35.0535 8.3028 35.0535 8.61354C35.0535 8.92239 34.9278 9.22507 34.7097 9.44504Z" fill="#555555"/>
</g>
</svg>
